{
    "1622d362b8f": {
        "path": "..\\resource\\eui_skins\\Game1\\BetUI.ts",
        "class": "BetUI",
        "parentPath": ""
    },
    "global": {
        "gridColor": 8421504,
        "gridEnabled": true,
        "gridSize": "96",
        "globalAutoLayerMarkEnable": true,
        "globalAdsorbEnable": false,
        "globalRulerEnable": false
    },
    "1624665c549": {
        "path": "..\\resource\\eui_skins\\Game1\\GameUI.ts",
        "class": "GameUI",
        "parentPath": ""
    },
    "162d74886a4": {
        "path": "..\\resource\\eui_skins\\game1\\WaveSize.ts",
        "class": "WaveSize",
        "parentPath": ""
    },
    "162d7493233": {
        "path": "..\\resource\\eui_skins\\game1\\WaveSizeItem.ts",
        "class": "WaveSizeItem",
        "parentPath": "resource/eui_skins/ItemRendererSkin.exml"
    },
    "162dc6c38df": {
        "path": "..\\resource\\eui_skins\\game1\\BigOrSmall.ts",
        "class": "BigOrSmall",
        "parentPath": ""
    },
    "162dc6ca341": {
        "path": "..\\resource\\eui_skins\\game1\\BigOrSmallItem.ts",
        "class": "BigOrSmallItem",
        "parentPath": "resource/eui_skins/ItemRendererSkin.exml"
    },
    "162dd31d868": {
        "path": "..\\resource\\eui_skins\\game1\\Zodiac.ts",
        "class": "Zodiac",
        "parentPath": "",
        "backgroundX": 0,
        "backgroundY": 0,
        "backgroundWidth": -1,
        "backgroundHeight": -1,
        "useBgImage": true,
        "useBgColor": true,
        "backgroundAlpha": 100
    },
    "162dd3256a4": {
        "path": "..\\resource\\eui_skins\\game1\\ZodiacItem.ts",
        "class": "ZodiacItem",
        "parentPath": ""
    },
    "162f525b27d": {
        "path": "..\\resource\\eui_skins\\game1\\GameLobby.ts",
        "class": "GameLobby",
        "parentPath": ""
    },
    "162f529d7dd": {
        "path": "..\\resource\\eui_skins\\game1\\GameLobbyItem.ts",
        "class": "GameLobbyItem",
        "parentPath": ""
    },
    "162f6f51598": {
        "path": "..\\resource\\eui_skins\\game1\\History.ts",
        "class": "History",
        "parentPath": ""
    },
    "162f6f6d992": {
        "path": "..\\resource\\eui_skins\\game1\\HistoryUI.ts",
        "class": "HistoryUI",
        "parentPath": ""
    },
    "162f6f77bc6": {
        "path": "..\\resource\\eui_skins\\game1\\HistoryUIItem.ts",
        "class": "HistoryUIItem",
        "parentPath": "resource/eui_skins/ItemRendererSkin.exml"
    },
    "162fa487ea5": {
        "path": "..\\resource\\eui_skins\\game1\\HistoryUIInfoItem.ts",
        "class": "HistoryUIInfoItem",
        "parentPath": "resource/eui_skins/ItemRendererSkin.exml"
    },
    "162fbecf22f": {
        "path": "..\\resource\\eui_skins\\game1\\Settlement.ts",
        "class": "Settlement",
        "parentPath": "resource/eui_skins/PanelSkin.exml"
    },
    "162fbed5a44": {
        "path": "..\\resource\\eui_skins\\game1\\SettlementItem.ts",
        "class": "SettlementItem",
        "parentPath": "resource/eui_skins/ItemRendererSkin.exml"
    },
    "16300673b1d": {
        "path": "..\\resource\\eui_skins\\game1\\BetInput.ts",
        "class": "BetInput",
        "parentPath": "resource/eui_skins/TextInputSkin.exml"
    },
    "163006b4677": {
        "path": "..\\resource\\eui_skins\\game1\\BetInput.ts",
        "class": "BetInput",
        "parentPath": "resource/eui_skins/TextInputSkin.exml"
    },
    "1631049e3a7": {
        "path": "..\\resource\\eui_skins\\game1\\PromptPanel.ts",
        "class": "PromptPanel",
        "parentPath": "resource/eui_skins/PanelSkin.exml"
    },
    "163106b695c": {
        "path": "..\\resource\\eui_skins\\game1\\ScrollSelect.ts",
        "class": "ScrollSelect",
        "parentPath": ""
    }
}